217 253 7
253 296 12
296 327 6
359 410 12
410 1221 4
1221 1257 5
1340 1504 9
1532 1671 10
1803 1897 9
1897 1972 7
1972 2114 9
2114 2198 7
2198 2255 10
2255 2302 8
2302 2361 12
2361 3352 4
3374 3393 5
3393 3433 6
3433 3639 9
3639 3784 10
3784 3944 9
3944 4027 7
4027 4089 8
4089 4133 7
