220 271 7
271 310 12
310 344 6
344 373 4
373 394 5
394 432 12
432 1257 4
1257 1273 5
1273 1322 12
1371 1512 9
1548 1689 10
1818 1918 9
1918 1957 7
1957 1985 6
1985 2136 9
2136 2175 7
2175 2212 6
2212 2276 10
2276 2317 8
2317 2373 12
2373 3352 4
3352 3414 5
3414 3454 6
3454 3590 9
3590 3632 10
3632 3658 9
3658 3797 10
3797 3961 9
3961 4043 7
4043 4107 8
4107 4162 7
